0
SECTION
2
HEADER
9
$INSUNITS
70
4
9
$ACADVER
1
AC1014
9
$HANDSEED
5
FFFF
0
ENDSEC
0
SECTION
2
TABLES
0
TABLE
2
VPORT
5
8
100
AcDbSymbolTable
0
ENDTAB
0
TABLE
2
LTYPE
5
5
100
AcDbSymbolTable
0
LTYPE
5
14
100
AcDbSymbolTableRecord
100
AcDbLinetypeTableRecord
2
BYBLOCK
70
0
0
LTYPE
5
15
100
AcDbSymbolTableRecord
100
AcDbLinetypeTableRecord
2
BYLAYER
70
0
0
ENDTAB
0
TABLE
2
LAYER
5
2
100
AcDbSymbolTable
70
2
0
LAYER
5
50
100
AcDbSymbolTableRecord
100
AcDbLayerTableRecord
2
0
70
0
6
CONTINUOUS
0
ENDTAB
0
TABLE
2
STYLE
5
3
100
AcDbSymbolTable
70
1
0
STYLE
5
11
100
AcDbSymbolTableRecord
100
AcDbTextStyleTableRecord
2
STANDARD
70
0
0
ENDTAB
0
TABLE
2
VIEW
5
6
100
AcDbSymbolTable
70
0
0
ENDTAB
0
TABLE
2
UCS
5
7
100
AcDbSymbolTable
70
0
0
ENDTAB
0
TABLE
2
APPID
5
9
100
AcDbSymbolTable
70
2
0
APPID
5
12
100
AcDbSymbolTableRecord
100
AcDbRegAppTableRecord
2
ACAD
70
0
0
ENDTAB
0
TABLE
2
DIMSTYLE
5
A
100
AcDbSymbolTable
70
1
0
ENDTAB
0
TABLE
2
BLOCK_RECORD
5
1
100
AcDbSymbolTable
70
1
0
BLOCK_RECORD
5
1F
100
AcDbSymbolTableRecord
100
AcDbBlockTableRecord
2
*MODEL_SPACE
0
BLOCK_RECORD
5
1B
100
AcDbSymbolTableRecord
100
AcDbBlockTableRecord
2
*PAPER_SPACE
0
ENDTAB
0
ENDSEC
0
SECTION
2
BLOCKS
0
BLOCK
5
20
100
AcDbEntity
100
AcDbBlockBegin
2
*MODEL_SPACE
0
ENDBLK
5
21
100
AcDbEntity
100
AcDbBlockEnd
0
BLOCK
5
1C
100
AcDbEntity
100
AcDbBlockBegin
2
*PAPER_SPACE
0
ENDBLK
5
1D
100
AcDbEntity
100
AcDbBlockEnd
0
ENDSEC
0
SECTION
2
ENTITIES
0
LINE
5
100
100
AcDbEntity
8
0
100
AcDbLine
10
-49.787406300595038
20
-14.058375486745724
30
0
11
-48.064371489269142
21
-14.058375486745724
31
0
0
ELLIPSE
5
101
100
AcDbEntity
8
0
100
AcDbEllipse
10
-48.064603619529429
20
-14.820491560715181
30
1.1102230246251565e-15
11
0.53897950814727824
21
0.53897950814716278
31
0.0
40
0.99969545988188735
41
5.4979394370298218
42
7.0684311773295665
0
LINE
5
102
100
AcDbEntity
8
0
100
AcDbLine
10
-47.30248754555997
20
-14.820259430454897
30
1.1102230246251565e-15
11
-47.30248754555997
21
-14.949822121059203
31
5.5511151231257827e-16
0
LINE
5
103
100
AcDbEntity
8
0
100
AcDbLine
10
-47.30248754555997
20
-14.949822121059203
30
5.5511151231257827e-16
11
-46.786799999999999
21
-14.949822121059203
31
5.5511151231257827e-16
0
ARC
5
104
100
AcDbEntity
8
0
100
AcDbCircle
10
-46.786799999999999
20
-22.974299999999989
30
5.5511151231257827e-16
40
8.0244778789403135
100
AcDbArc
50
0
51
90
0
LINE
5
105
100
AcDbEntity
8
0
100
AcDbLine
10
-38.76232212105969
20
-22.974299999999928
30
5.5511151231257827e-16
11
-38.762322121059199
21
-27.537679352609569
31
5.5511151231257827e-16
0
ARC
5
106
100
AcDbEntity
8
0
100
AcDbCircle
10
-38.667099914180632
20
-27.537685344049969
30
-9.2893387426684626e-09
40
0.095222207067057668
100
AcDbArc
50
179.9963949096653
51
218.63069311997737
0
SPLINE
5
107
100
AcDbEntity
8
0
100
AcDbSpline
70
1064
71
3
72
14
73
10
74
0
42
0.000000001
43
0.0000000001
44
0.0000000001
40
4.1777673608052095e-17
40
4.1777673608052095e-17
40
4.1777673608052095e-17
40
4.1777673608052095e-17
40
0.00091890859627593972
40
0.00091890859627593972
40
0.00091890859627593972
40
0.0013783628944138862
40
0.0013783628944138862
40
0.0013783628944138862
40
0.0018378171925518328
40
0.0018378171925518328
40
0.0018378171925518328
40
0.0018378171925518328
10
-38.741486183560809
20
-27.597132393147671
30
1.1102230246251565e-15
10
-38.549419104058607
20
-27.837443397844666
30
1.1102230246251565e-15
10
-38.306985664042017
20
-28.032942637314431
30
1.1102230246251565e-15
10
-38.035216609654363
20
-28.169486858964518
30
1.1102230246251565e-15
10
-37.899332082460539
20
-28.23775896978956
30
1.1102230246251565e-15
10
-37.754030370659244
20
-28.292064918713208
30
5.5511151231257827e-16
10
-37.606961355341731
20
-28.329644902507418
30
5.5511151231257827e-16
10
-37.459892340024226
20
-28.367224886301642
30
1.6653345369377348e-15
10
-37.309563686747822
20
-28.389062368260731
30
5.5511151231257827e-16
10
-37.155844795471637
20
-28.394526612238661
30
5.5511151231257827e-16
0
SPLINE
5
108
100
AcDbEntity
8
0
100
AcDbSpline
70
1064
71
3
72
8
73
4
74
0
42
0.000000001
43
0.0000000001
44
0.0000000001
40
0
40
0
40
0
40
0
40
0.0010944624758058132
40
0.0010944624758058132
40
0.0010944624758058132
40
0.0010944624758058132
10
-37.155844795471651
20
-28.394526612238664
30
2.7755575615628914e-15
10
-36.791254243704458
20
-28.407486709142592
30
2.7755575615628914e-15
10
-36.426604000525835
20
-28.418835672120345
30
0
10
-36.061920568148416
20
-28.428847089429464
30
0
0
ARC
5
109
100
AcDbEntity
8
0
100
AcDbCircle
10
-31.749999999999989
20
128.64041666666822
30
5.5511151231257827e-16
40
157.12843878772742
100
AcDbArc
50
268.42749109842646
51
270
0
LINE
5
110
100
AcDbEntity
8
0
100
AcDbLine
10
-31.749999999999968
20
-28.488022121059196
30
5.5511151231257827e-16
11
31.749999999999968
21
-28.488022121059217
31
5.5511151231257827e-16
0
ARC
5
111
100
AcDbEntity
8
0
100
AcDbCircle
10
31.749999999999989
20
128.64041666666822
30
5.5511151231257827e-16
40
157.12843878772742
100
AcDbArc
50
270
51
271.57250890169763
0
SPLINE
5
112
100
AcDbEntity
8
0
100
AcDbSpline
70
1064
71
3
72
8
73
4
74
0
42
0.000000001
43
0.0000000001
44
0.0000000001
40
0
40
0
40
0
40
0
40
0.0010944624751597608
40
0.0010944624751597608
40
0.0010944624751597608
40
0.0010944624751597608
10
36.061920568488638
20
-28.428847089420131
30
2.7755575615628914e-15
10
36.426604000955408
20
-28.418835672098105
30
2.7755575615628914e-15
10
36.791254243918978
20
-28.407486709134968
30
2.7755575615628914e-15
10
37.155844795470962
20
-28.394526612238813
30
2.7755575615628914e-15
0
SPLINE
5
113
100
AcDbEntity
8
0
100
AcDbSpline
70
1064
71
3
72
14
73
10
74
0
42
0.000000001
43
0.0000000001
44
0.0000000001
40
0
40
0
40
0
40
0
40
0.00091889315867482962
40
0.00091889315867482962
40
0.00091889315867482962
40
0.0013783397380122419
40
0.0013783397380122419
40
0.0013783397380122419
40
0.0018377863173496543
40
0.0018377863173496543
40
0.0018377863173496543
40
0.0018377863173496543
10
37.155844795470969
20
-28.39452661223882
30
5.5511151231257827e-16
10
37.463281954972068
20
-28.383598146430657
30
5.5511151231257827e-16
10
37.764790438775272
20
-28.305580079104423
30
0
10
38.036467974106422
20
-28.168857622881866
30
0
10
38.17230674177199
20
-28.100496394770587
30
0
10
38.302552055718621
20
-28.016246149391804
30
1.1102230246251565e-15
10
38.420419125983003
20
-27.920596304914049
30
1.1102230246251565e-15
10
38.538286196247377
20
-27.824946460436301
30
5.5511151231257827e-16
10
38.645453071600677
20
-27.717287360247703
30
5.5511151231257827e-16
10
38.741486183559417
20
-27.597132393150332
30
5.5511151231257827e-16
0
ARC
5
114
100
AcDbEntity
8
0
100
AcDbCircle
10
38.667099914189436
20
-27.537685344053994
30
-9.2893293057727533e-09
40
0.095222207058263758
100
AcDbArc
50
-38.630693123162636
51
0.0036050960972437113
0
LINE
5
115
100
AcDbEntity
8
0
100
AcDbLine
10
38.762322121059206
20
-27.537679352603924
30
5.5511151231257827e-16
11
38.762322121059206
21
-22.974299999999989
31
5.5511151231257827e-16
0
ARC
5
116
100
AcDbEntity
8
0
100
AcDbCircle
10
46.786799999999999
20
-22.974299999999989
30
5.5511151231257827e-16
40
8.0244778789403153
100
AcDbArc
50
89.999999999999744
51
180
0
LINE
5
117
100
AcDbEntity
8
0
100
AcDbLine
10
46.786800000000035
20
-14.949822121059675
30
5.5511151231257827e-16
11
51.442351775181152
21
-14.949822121059197
31
5.5511151231257827e-16
0
ARC
5
118
100
AcDbEntity
8
0
100
AcDbCircle
10
51.442174610937855
20
-14.854074728401701
30
2.7755575615628914e-15
40
0.095747556563486311
100
AcDbArc
50
270.10601596090902
51
308.52053156986926
0
SPLINE
5
119
100
AcDbEntity
8
0
100
AcDbSpline
70
1064
71
3
72
11
73
7
74
0
42
0.000000001
43
0.0000000001
44
0.0000000001
40
6.1721401713011925
40
6.1721401713011925
40
6.1721401713011925
40
6.1721401713011925
40
6.6201905127700273
40
6.6201905127700273
40
6.6201905127700273
40
7.0682408542388666
40
7.0682408542388666
40
7.0682408542388666
40
7.0682408542388666
10
51.5018057141816
20
-14.928986183559186
30
2.7755575615628914e-15
10
51.75006136674115
20
-14.730570263073993
30
2.7755575615628914e-15
10
51.952796683026669
20
-14.475866171069381
30
2.7755575615628914e-15
10
52.090476581402008
20
-14.189516980351994
30
2.7755575615628914e-15
10
52.228156479777354
20
-13.903167789634605
30
2.7755575615628914e-15
10
52.30052212105258
20
-13.585712071133715
30
2.7755575615628914e-15
10
52.300522121059203
20
-13.267801076504993
30
2.7755575615628914e-15
0
LINE
5
120
100
AcDbEntity
8
0
100
AcDbLine
10
52.300522121059203
20
-13.267801076504993
30
2.7755575615628914e-15
11
52.300522121059203
21
13.267801076505002
31
5.5511151231257827e-16
0
SPLINE
5
121
100
AcDbEntity
8
0
100
AcDbSpline
70
1064
71
3
72
11
73
7
74
0
42
0.000000001
43
0.0000000001
44
0.0000000001
40
5.4981297601203005
40
5.4981297601203005
40
5.4981297601203005
40
5.4981297601203005
40
5.9461801015891362
40
5.9461801015891362
40
5.9461801015891362
40
6.3942304430579719
40
6.3942304430579719
40
6.3942304430579719
40
6.3942304430579719
10
52.300522121059203
20
13.267801076504998
30
2.7755575615628914e-15
10
52.30052212105258
20
13.58571207113372
30
2.7755575615628914e-15
10
52.22815647977734
20
13.903167789634612
30
2.7755575615628914e-15
10
52.090476581402001
20
14.189516980351996
30
2.2204460492503131e-15
10
51.952796683026669
20
14.475866171069383
30
2.7755575615628914e-15
10
51.750061366739466
20
14.730570263071892
30
2.7755575615628914e-15
10
51.501805714181607
20
14.928986183559189
30
2.7755575615628914e-15
0
ARC
5
122
100
AcDbEntity
8
0
100
AcDbCircle
10
51.442174610937982
20
14.854074728402004
30
-6.6613381477509392e-15
40
0.095747556563176975
100
AcDbArc
50
51.479468430074725
51
89.893984039141671
0
LINE
5
123
100
AcDbEntity
8
0
100
AcDbLine
10
51.442351775181194
20
14.94982212105919
30
2.7755575615628914e-15
11
46.786799999999999
21
14.94982212105919
31
5.5511151231257827e-16
0
ARC
5
124
100
AcDbEntity
8
0
100
AcDbCircle
10
46.786799999999999
20
22.974299999999989
30
5.5511151231257827e-16
40
8.0244778789403135
100
AcDbArc
50
180
51
270
0
LINE
5
125
100
AcDbEntity
8
0
100
AcDbLine
10
38.76232212105969
20
22.974300000000039
30
5.5511151231257827e-16
11
38.762322121059199
21
27.537679352609313
31
5.5511151231257827e-16
0
ARC
5
126
100
AcDbEntity
8
0
100
AcDbCircle
10
38.667099914181065
20
27.537685344049837
30
-9.2893293057727533e-09
40
0.095222207066622475
100
AcDbArc
50
-0.0036050904358207766
51
38.630693120091443
0
SPLINE
5
127
100
AcDbEntity
8
0
100
AcDbSpline
70
1064
71
3
72
14
73
10
74
0
42
0.000000001
43
0.0000000001
44
0.0000000001
40
4.9065389333867972e-17
40
4.9065389333867972e-17
40
4.9065389333867972e-17
40
4.9065389333867972e-17
40
0.00091890859627583119
40
0.00091890859627583119
40
0.00091890859627583119
40
0.0013783628944137247
40
0.0013783628944137247
40
0.0013783628944137247
40
0.0018378171925516181
40
0.0018378171925516181
40
0.0018378171925516181
40
0.0018378171925516181
10
38.741486183560795
20
27.597132393147422
30
1.1102230246251565e-15
10
38.549419104058622
20
27.837443397844389
30
1.1102230246251565e-15
10
38.306985664041846
20
28.03294263731377
30
1.1102230246251565e-15
10
38.03521660965437
20
28.169486858964103
30
1.1102230246251565e-15
10
37.899332082460631
20
28.237758969789269
30
1.6653345369377348e-15
10
37.754030370659379
20
28.292064918712938
30
1.1102230246251565e-15
10
37.606961355341838
20
28.329644902506899
30
1.1102230246251565e-15
10
37.459892340024304
20
28.367224886300853
30
1.1102230246251565e-15
10
37.309563686748028
20
28.389062368260468
30
5.5511151231257827e-16
10
37.155844795471872
20
28.394526612238408
30
5.5511151231257827e-16
0
SPLINE
5
128
100
AcDbEntity
8
0
100
AcDbSpline
70
1064
71
3
72
8
73
4
74
0
42
0.000000001
43
0.0000000001
44
0.0000000001
40
0
40
0
40
0
40
0
40
0.0010944624758060289
40
0.0010944624758060289
40
0.0010944624758060289
40
0.0010944624758060289
10
37.155844795471857
20
28.394526612238412
30
1.1102230246251565e-15
10
36.791254243704607
20
28.407486709142383
30
1.1102230246251565e-15
10
36.426604000525565
20
28.418835672107502
30
-5.5511151231257827e-16
10
36.061920568148146
20
28.428847089429471
30
-5.5511151231257827e-16
0
ARC
5
129
100
AcDbEntity
8
0
100
AcDbCircle
10
31.749999999999989
20
-128.64041666666822
30
5.5511151231257827e-16
40
157.12843878772742
100
AcDbArc
50
88.4274910984266
51
90
0
LINE
5
130
100
AcDbEntity
8
0
100
AcDbLine
10
31.750000000000007
20
28.488022121059178
30
5.5511151231257827e-16
11
-31.749999999999989
21
28.488022121059227
31
5.5511151231257827e-16
0
ARC
5
131
100
AcDbEntity
8
0
100
AcDbCircle
10
-31.749999999999989
20
-128.64041666666822
30
5.5511151231257827e-16
40
157.12843878772745
100
AcDbArc
50
90
51
91.572508901697461
0
SPLINE
5
132
100
AcDbEntity
8
0
100
AcDbSpline
70
1064
71
3
72
8
73
4
74
0
42
0.000000001
43
0.0000000001
44
0.0000000001
40
0
40
0
40
0
40
0
40
0.0010944624751601717
40
0.0010944624751601717
40
0.0010944624751601717
40
0.0010944624751601717
10
-36.06192056848829
20
28.428847089420138
30
6.6613381477509392e-15
10
-36.426604000955038
20
28.418835672093515
30
6.6613381477509392e-15
10
-36.791254243918857
20
28.407486709134922
30
-5.5511151231257827e-16
10
-37.155844795470983
20
28.394526612238764
30
-5.5511151231257827e-16
0
SPLINE
5
133
100
AcDbEntity
8
0
100
AcDbSpline
70
1064
71
3
72
14
73
10
74
0
42
0.000000001
43
0.0000000001
44
0.0000000001
40
0
40
0
40
0
40
0
40
0.00091889315867481715
40
0.00091889315867481715
40
0.00091889315867481715
40
0.0013783397380122164
40
0.0013783397380122164
40
0.0013783397380122164
40
0.0018377863173496154
40
0.0018377863173496154
40
0.0018377863173496154
40
0.0018377863173496154
10
-37.155844795470998
20
28.394526612238774
30
1.1102230246251565e-15
10
-37.463281954972118
20
28.383598146430597
30
1.1102230246251565e-15
10
-37.764790438775094
20
28.305580079103926
30
0
10
-38.036467974106344
20
28.168857622881653
30
0
10
-38.172306741771976
20
28.10049639477052
30
1.6653345369377348e-15
10
-38.302552055718564
20
28.016246149391776
30
5.5511151231257827e-16
10
-38.420419125983457
20
27.920596304914579
30
5.5511151231257827e-16
10
-38.538286196248357
20
27.824946460437378
30
1.1102230246251565e-15
10
-38.645453071600706
20
27.717287360247667
30
1.1102230246251565e-15
10
-38.741486183559417
20
27.597132393150289
30
1.1102230246251565e-15
0
ARC
5
134
100
AcDbEntity
8
0
100
AcDbCircle
10
-38.667099914189464
20
27.537685344053948
30
-9.2893148728734332e-09
40
0.095222207058242248
100
AcDbArc
50
141.36930687682502
51
180.0036050961983
0
LINE
5
135
100
AcDbEntity
8
0
100
AcDbLine
10
-38.762322121059206
20
27.537679352603853
30
5.5511151231257827e-16
11
-38.762322121059199
21
22.974299999999989
31
5.5511151231257827e-16
0
ARC
5
136
100
AcDbEntity
8
0
100
AcDbCircle
10
-46.786799999999999
20
22.974299999999989
30
5.5511151231257827e-16
40
8.0244778789403153
100
AcDbArc
50
-90.000000000000099
51
0
0
LINE
5
137
100
AcDbEntity
8
0
100
AcDbLine
10
-46.786800000000014
20
14.949822121059675
30
5.5511151231257827e-16
11
-47.30248754555997
21
14.949822121059192
31
5.5511151231257827e-16
0
LINE
5
138
100
AcDbEntity
8
0
100
AcDbLine
10
-47.30248754555997
20
14.949822121059192
30
5.5511151231257827e-16
11
-47.30248754555997
21
14.820259430454897
31
0
0
ELLIPSE
5
139
100
AcDbEntity
8
0
100
AcDbEllipse
10
-48.064603619529429
20
14.820491560715181
30
1.1102230246251565e-15
11
-0.53897950814727824
21
0.53897950814716278
31
0.0
40
0.99969545988188735
41
2.3563467834398133
42
3.9268385237395571
0
LINE
5
140
100
AcDbEntity
8
0
100
AcDbLine
10
-48.064371489269142
20
14.058375486745723
30
1.1102230246251565e-15
11
-49.787406300595038
21
14.058375486745724
31
0
0
ELLIPSE
5
141
100
AcDbEntity
8
0
100
AcDbEllipse
10
-49.787174170334751
20
14.820491560715185
30
1.1102230246251565e-15
11
0.53897950814727824
21
0.53897950814716278
31
0.0
40
0.99969545988188735
41
2.356346783440034
42
3.9268385237397783
0
LINE
5
142
100
AcDbEntity
8
0
100
AcDbLine
10
-50.54929024430421
20
14.820259430454897
30
1.1102230246251565e-15
11
-50.54929024430421
21
14.949822121059196
31
5.5511151231257827e-16
0
LINE
5
143
100
AcDbEntity
8
0
100
AcDbLine
10
-50.54929024430421
20
14.949822121059196
30
5.5511151231257827e-16
11
-51.442351775181159
21
14.949822121059197
31
5.5511151231257827e-16
0
ARC
5
144
100
AcDbEntity
8
0
100
AcDbCircle
10
-51.442174610937869
20
14.854074728401713
30
-1.6653345369377348e-15
40
0.095747556563472988
100
AcDbArc
50
90.106015960904784
51
128.52053156987259
0
SPLINE
5
145
100
AcDbEntity
8
0
100
AcDbSpline
70
1064
71
3
72
11
73
7
74
0
42
0.000000001
43
0.0000000001
44
0.0000000001
40
6.172140171301197
40
6.172140171301197
40
6.172140171301197
40
6.172140171301197
40
6.6201905127700353
40
6.6201905127700353
40
6.6201905127700353
40
7.0682408542388728
40
7.0682408542388728
40
7.0682408542388728
40
7.0682408542388728
10
-51.501805714181607
20
14.928986183559179
30
2.7755575615628914e-15
10
-51.750061366739331
20
14.730570263071712
30
2.7755575615628914e-15
10
-51.952796683026669
20
14.475866171069374
30
2.7755575615628914e-15
10
-52.090476581402001
20
14.189516980351986
30
2.7755575615628914e-15
10
-52.22815647977734
20
13.903167789634598
30
2.7755575615628914e-15
10
-52.30052212105258
20
13.58571207113371
30
2.7755575615628914e-15
10
-52.300522121059203
20
13.267801076504986
30
2.7755575615628914e-15
0
LINE
5
146
100
AcDbEntity
8
0
100
AcDbLine
10
-52.300522121059203
20
13.267801076504986
30
2.7755575615628914e-15
11
-52.300522121059203
21
-13.267801076504991
31
5.5511151231257827e-16
0
SPLINE
5
147
100
AcDbEntity
8
0
100
AcDbSpline
70
1064
71
3
72
11
73
7
74
0
42
0.000000001
43
0.0000000001
44
0.0000000001
40
2.3565371065305132
40
2.3565371065305132
40
2.3565371065305132
40
2.3565371065305132
40
2.8045874479993529
40
2.8045874479993529
40
2.8045874479993529
40
3.2526377894681948
40
3.2526377894681948
40
3.2526377894681948
40
3.2526377894681948
10
-52.300522121059203
20
-13.267801076504993
30
2.7755575615628914e-15
10
-52.30052212105258
20
-13.585712071133722
30
2.7755575615628914e-15
10
-52.228156479777198
20
-13.903167789634612
30
2.7755575615628914e-15
10
-52.090476581401994
20
-14.189516980352003
30
2.7755575615628914e-15
10
-51.952796683026783
20
-14.4758661710694
30
2.7755575615628914e-15
10
-51.750061366739672
20
-14.73057026307227
30
2.7755575615628914e-15
10
-51.501805714181586
20
-14.928986183559195
30
2.7755575615628914e-15
0
ARC
5
148
100
AcDbEntity
8
0
100
AcDbCircle
10
-51.442174610937883
20
-14.854074728401795
30
1.2212453270876722e-14
40
0.095747556563395272
100
AcDbArc
50
231.4794684301182
51
269.89398403912065
0
LINE
5
149
100
AcDbEntity
8
0
100
AcDbLine
10
-51.44235177518113
20
-14.949822121059197
30
2.7755575615628914e-15
11
-50.549290244304217
21
-14.949822121059206
31
5.5511151231257827e-16
0
LINE
5
150
100
AcDbEntity
8
0
100
AcDbLine
10
-50.549290244304217
20
-14.949822121059206
30
5.5511151231257827e-16
11
-50.54929024430421
21
-14.820259430454897
31
0
0
ELLIPSE
5
151
100
AcDbEntity
8
0
100
AcDbEllipse
10
-49.787174170334751
20
-14.820491560715183
30
1.1102230246251565e-15
11
-0.53897950814727824
21
0.53897950814716278
31
0.0
40
0.99969545988188735
41
5.4979394370296006
42
7.0684311773293453
0
CIRCLE
5
152
100
AcDbEntity
8
0
100
AcDbCircle
10
-36.512499999999989
20
-12.70000000000001
30
5.5511151231257827e-16
40
2.9602806019643269
0
CIRCLE
5
153
100
AcDbEntity
8
0
100
AcDbCircle
10
-36.512499999999989
20
12.699999999999985
30
5.5511151231257827e-16
40
2.9602806019643269
0
CIRCLE
5
154
100
AcDbEntity
8
0
100
AcDbCircle
10
36.512499999999989
20
12.699999999999985
30
5.5511151231257827e-16
40
2.9602806019643269
0
CIRCLE
5
155
100
AcDbEntity
8
0
100
AcDbCircle
10
36.512499999999989
20
-12.699999999999999
30
5.5511151231257827e-16
40
2.9602806019643251
0
LINE
5
156
100
AcDbEntity
8
0
100
AcDbLine
10
-49.787406300595038
20
-14.058375486745724
30
0
11
-48.064371489269142
21
-14.058375486745724
31
6.2235852558964543e-32
0
ELLIPSE
5
157
100
AcDbEntity
8
0
100
AcDbEllipse
10
-48.064603619529429
20
-14.820491560715181
30
1.1102230246251565e-15
11
0.53897950814727824
21
0.53897950814716278
31
0.0
40
0.99969545988188735
41
5.497939437029606
42
7.0684311773293507
0
LINE
5
158
100
AcDbEntity
8
0
100
AcDbLine
10
-47.30248754555997
20
-14.820259430454897
30
1.1102230246251565e-15
11
-47.30248754555997
21
-14.949822121059203
31
5.5511151231257847e-16
0
LINE
5
159
100
AcDbEntity
8
0
100
AcDbLine
10
-47.30248754555997
20
-14.949822121059203
30
5.5511151231257847e-16
11
-46.786799999999999
21
-14.949822121059203
31
5.5511151231257827e-16
0
ARC
5
160
100
AcDbEntity
8
0
100
AcDbCircle
10
-46.786799999999999
20
-22.974299999999989
30
5.5511151231257827e-16
40
8.0244778789407878
100
AcDbArc
50
0
51
90
0
LINE
5
161
100
AcDbEntity
8
0
100
AcDbLine
10
-38.76232212105969
20
-22.974299999999928
30
5.5511151231257847e-16
11
-38.762322121059199
21
-27.537679352609565
31
5.5511151231257827e-16
0
ARC
5
162
100
AcDbEntity
8
0
100
AcDbCircle
10
-38.667099914180632
20
-27.537685344049969
30
-9.2893387426684626e-09
40
0.095222207067057668
100
AcDbArc
50
179.9963949096653
51
218.63069311997737
0
SPLINE
5
163
100
AcDbEntity
8
0
100
AcDbSpline
70
1064
71
3
72
14
73
10
74
0
42
0.000000001
43
0.0000000001
44
0.0000000001
40
4.1777673608052095e-17
40
4.1777673608052095e-17
40
4.1777673608052095e-17
40
4.1777673608052095e-17
40
0.00091890859627593972
40
0.00091890859627593972
40
0.00091890859627593972
40
0.0013783628944138862
40
0.0013783628944138862
40
0.0013783628944138862
40
0.0018378171925518328
40
0.0018378171925518328
40
0.0018378171925518328
40
0.0018378171925518328
10
-38.741486183560809
20
-27.597132393147671
30
1.1102230246251565e-15
10
-38.549419104058607
20
-27.837443397844666
30
1.1102230246251565e-15
10
-38.306985664042017
20
-28.032942637314431
30
1.1102230246251565e-15
10
-38.035216609654363
20
-28.169486858964518
30
1.1102230246251565e-15
10
-37.899332082460539
20
-28.23775896978956
30
1.1102230246251565e-15
10
-37.754030370659244
20
-28.292064918713208
30
5.5511151231257827e-16
10
-37.606961355341731
20
-28.329644902507418
30
5.5511151231257827e-16
10
-37.459892340024226
20
-28.367224886301642
30
1.6653345369377348e-15
10
-37.309563686747822
20
-28.389062368260731
30
5.5511151231257827e-16
10
-37.155844795471637
20
-28.394526612238661
30
5.5511151231257827e-16
0
SPLINE
5
164
100
AcDbEntity
8
0
100
AcDbSpline
70
1064
71
3
72
8
73
4
74
0
42
0.000000001
43
0.0000000001
44
0.0000000001
40
0
40
0
40
0
40
0
40
0.0010944624758058132
40
0.0010944624758058132
40
0.0010944624758058132
40
0.0010944624758058132
10
-37.155844795471651
20
-28.394526612238664
30
2.7755575615628914e-15
10
-36.791254243704458
20
-28.407486709142592
30
2.7755575615628914e-15
10
-36.426604000525835
20
-28.418835672120345
30
0
10
-36.061920568148416
20
-28.428847089429464
30
0
0
ARC
5
165
100
AcDbEntity
8
0
100
AcDbCircle
10
-31.749999999999989
20
128.64041666666822
30
5.5511151231257827e-16
40
157.12843878772742
100
AcDbArc
50
268.42749109842646
51
270
0
LINE
5
166
100
AcDbEntity
8
0
100
AcDbLine
10
-31.749999999999968
20
-28.488022121059199
30
5.5511151231257827e-16
11
31.749999999999968
21
-28.488022121059217
31
5.5511151231258064e-16
0
ARC
5
167
100
AcDbEntity
8
0
100
AcDbCircle
10
31.749999999999989
20
128.64041666666822
30
5.5511151231257827e-16
40
157.12843878772742
100
AcDbArc
50
270
51
271.57250890169763
0
SPLINE
5
168
100
AcDbEntity
8
0
100
AcDbSpline
70
1064
71
3
72
8
73
4
74
0
42
0.000000001
43
0.0000000001
44
0.0000000001
40
0
40
0
40
0
40
0
40
0.0010944624751597608
40
0.0010944624751597608
40
0.0010944624751597608
40
0.0010944624751597608
10
36.061920568488638
20
-28.428847089420131
30
2.7755575615628914e-15
10
36.426604000955408
20
-28.418835672098105
30
2.7755575615628914e-15
10
36.791254243918978
20
-28.407486709134968
30
2.7755575615628914e-15
10
37.155844795470962
20
-28.394526612238813
30
2.7755575615628914e-15
0
SPLINE
5
169
100
AcDbEntity
8
0
100
AcDbSpline
70
1064
71
3
72
14
73
10
74
0
42
0.000000001
43
0.0000000001
44
0.0000000001
40
0
40
0
40
0
40
0
40
0.00091889315867482962
40
0.00091889315867482962
40
0.00091889315867482962
40
0.0013783397380122419
40
0.0013783397380122419
40
0.0013783397380122419
40
0.0018377863173496543
40
0.0018377863173496543
40
0.0018377863173496543
40
0.0018377863173496543
10
37.155844795470969
20
-28.39452661223882
30
5.5511151231257827e-16
10
37.463281954972068
20
-28.383598146430657
30
5.5511151231257827e-16
10
37.764790438775272
20
-28.305580079104423
30
0
10
38.036467974106422
20
-28.168857622881866
30
0
10
38.17230674177199
20
-28.100496394770587
30
0
10
38.302552055718621
20
-28.016246149391804
30
1.1102230246251565e-15
10
38.420419125983003
20
-27.920596304914049
30
1.1102230246251565e-15
10
38.538286196247377
20
-27.824946460436301
30
5.5511151231257827e-16
10
38.645453071600677
20
-27.717287360247703
30
5.5511151231257827e-16
10
38.741486183559417
20
-27.597132393150332
30
5.5511151231257827e-16
0
ARC
5
170
100
AcDbEntity
8
0
100
AcDbCircle
10
38.667099914189436
20
-27.537685344053994
30
-9.2893293057727533e-09
40
0.095222207058263758
100
AcDbArc
50
-38.630693123162636
51
0.0036050960972437113
0
LINE
5
171
100
AcDbEntity
8
0
100
AcDbLine
10
38.762322121059206
20
-27.537679352603924
30
5.5548603410304208e-16
11
38.762322121059206
21
-22.974299999999992
31
5.5511151231257827e-16
0
ARC
5
172
100
AcDbEntity
8
0
100
AcDbCircle
10
46.786799999999999
20
-22.974299999999989
30
5.5511151231257827e-16
40
8.0244778789407931
100
AcDbArc
50
89.999999999999744
51
180
0
LINE
5
173
100
AcDbEntity
8
0
100
AcDbLine
10
46.786800000000035
20
-14.949822121059675
30
5.5511151231257827e-16
11
51.442351775181152
21
-14.949822121059197
31
5.5511151231257837e-16
0
ARC
5
174
100
AcDbEntity
8
0
100
AcDbCircle
10
51.442174610937855
20
-14.854074728401701
30
2.7755575615628914e-15
40
0.095747556563486311
100
AcDbArc
50
270.10601596090902
51
308.52053156986926
0
SPLINE
5
175
100
AcDbEntity
8
0
100
AcDbSpline
70
1064
71
3
72
11
73
7
74
0
42
0.000000001
43
0.0000000001
44
0.0000000001
40
6.1721401713011925
40
6.1721401713011925
40
6.1721401713011925
40
6.1721401713011925
40
6.6201905127700273
40
6.6201905127700273
40
6.6201905127700273
40
7.0682408542388666
40
7.0682408542388666
40
7.0682408542388666
40
7.0682408542388666
10
51.5018057141816
20
-14.928986183559186
30
2.7755575615628914e-15
10
51.75006136674115
20
-14.730570263073993
30
2.7755575615628914e-15
10
51.952796683026669
20
-14.475866171069381
30
2.7755575615628914e-15
10
52.090476581402008
20
-14.189516980351994
30
2.7755575615628914e-15
10
52.228156479777354
20
-13.903167789634605
30
2.7755575615628914e-15
10
52.30052212105258
20
-13.585712071133715
30
2.7755575615628914e-15
10
52.300522121059203
20
-13.267801076504993
30
2.7755575615628914e-15
0
LINE
5
176
100
AcDbEntity
8
0
100
AcDbLine
10
52.300522121059203
20
-13.267801076504993
30
2.7755575615628914e-15
11
52.300522121059203
21
13.267801076505002
31
5.5511151231257827e-16
0
SPLINE
5
177
100
AcDbEntity
8
0
100
AcDbSpline
70
1064
71
3
72
11
73
7
74
0
42
0.000000001
43
0.0000000001
44
0.0000000001
40
5.4981297601203005
40
5.4981297601203005
40
5.4981297601203005
40
5.4981297601203005
40
5.9461801015891362
40
5.9461801015891362
40
5.9461801015891362
40
6.3942304430579719
40
6.3942304430579719
40
6.3942304430579719
40
6.3942304430579719
10
52.300522121059203
20
13.267801076504998
30
2.7755575615628914e-15
10
52.30052212105258
20
13.58571207113372
30
2.7755575615628914e-15
10
52.22815647977734
20
13.903167789634612
30
2.7755575615628914e-15
10
52.090476581402001
20
14.189516980351996
30
2.2204460492503131e-15
10
51.952796683026669
20
14.475866171069383
30
2.7755575615628914e-15
10
51.750061366739466
20
14.730570263071892
30
2.7755575615628914e-15
10
51.501805714181607
20
14.928986183559189
30
2.7755575615628914e-15
0
ARC
5
178
100
AcDbEntity
8
0
100
AcDbCircle
10
51.442174610937982
20
14.854074728402004
30
-6.6613381477509392e-15
40
0.095747556563176975
100
AcDbArc
50
51.479468430074725
51
89.893984039141671
0
LINE
5
179
100
AcDbEntity
8
0
100
AcDbLine
10
51.442351775181194
20
14.94982212105919
30
2.7712935561708442e-15
11
46.786799999999999
21
14.94982212105919
31
5.5511151231257807e-16
0
ARC
5
180
100
AcDbEntity
8
0
100
AcDbCircle
10
46.786799999999999
20
22.974299999999989
30
5.5511151231257827e-16
40
8.0244778789407984
100
AcDbArc
50
180
51
270
0
LINE
5
181
100
AcDbEntity
8
0
100
AcDbLine
10
38.76232212105969
20
22.974300000000039
30
5.5511151231257797e-16
11
38.762322121059199
21
27.53767935260931
31
5.5511151231257827e-16
0
ARC
5
182
100
AcDbEntity
8
0
100
AcDbCircle
10
38.667099914181065
20
27.537685344049837
30
-9.2893293057727533e-09
40
0.095222207066622475
100
AcDbArc
50
-0.0036050904358207766
51
38.630693120091443
0
SPLINE
5
183
100
AcDbEntity
8
0
100
AcDbSpline
70
1064
71
3
72
14
73
10
74
0
42
0.000000001
43
0.0000000001
44
0.0000000001
40
4.9065389333867972e-17
40
4.9065389333867972e-17
40
4.9065389333867972e-17
40
4.9065389333867972e-17
40
0.00091890859627583119
40
0.00091890859627583119
40
0.00091890859627583119
40
0.0013783628944137247
40
0.0013783628944137247
40
0.0013783628944137247
40
0.0018378171925516181
40
0.0018378171925516181
40
0.0018378171925516181
40
0.0018378171925516181
10
38.741486183560795
20
27.597132393147422
30
1.1102230246251565e-15
10
38.549419104058622
20
27.837443397844389
30
1.1102230246251565e-15
10
38.306985664041846
20
28.03294263731377
30
1.1102230246251565e-15
10
38.03521660965437
20
28.169486858964103
30
1.1102230246251565e-15
10
37.899332082460631
20
28.237758969789269
30
1.6653345369377348e-15
10
37.754030370659379
20
28.292064918712938
30
1.1102230246251565e-15
10
37.606961355341838
20
28.329644902506899
30
1.1102230246251565e-15
10
37.459892340024304
20
28.367224886300853
30
1.1102230246251565e-15
10
37.309563686748028
20
28.389062368260468
30
5.5511151231257827e-16
10
37.155844795471872
20
28.394526612238408
30
5.5511151231257827e-16
0
SPLINE
5
184
100
AcDbEntity
8
0
100
AcDbSpline
70
1064
71
3
72
8
73
4
74
0
42
0.000000001
43
0.0000000001
44
0.0000000001
40
0
40
0
40
0
40
0
40
0.0010944624758060289
40
0.0010944624758060289
40
0.0010944624758060289
40
0.0010944624758060289
10
37.155844795471857
20
28.394526612238412
30
1.1102230246251565e-15
10
36.791254243704607
20
28.407486709142383
30
1.1102230246251565e-15
10
36.426604000525565
20
28.418835672107502
30
-5.5511151231257827e-16
10
36.061920568148146
20
28.428847089429471
30
-5.5511151231257827e-16
0
ARC
5
185
100
AcDbEntity
8
0
100
AcDbCircle
10
31.749999999999989
20
-128.64041666666822
30
5.5511151231257827e-16
40
157.12843878772742
100
AcDbArc
50
88.4274910984266
51
90
0
LINE
5
186
100
AcDbEntity
8
0
100
AcDbLine
10
31.750000000000007
20
28.488022121059181
30
5.5511151231257817e-16
11
-31.749999999999989
21
28.488022121059227
31
5.55111512312576e-16
0
ARC
5
187
100
AcDbEntity
8
0
100
AcDbCircle
10
-31.749999999999989
20
-128.64041666666822
30
5.5511151231257827e-16
40
157.12843878772745
100
AcDbArc
50
90
51
91.572508901697461
0
SPLINE
5
188
100
AcDbEntity
8
0
100
AcDbSpline
70
1064
71
3
72
8
73
4
74
0
42
0.000000001
43
0.0000000001
44
0.0000000001
40
0
40
0
40
0
40
0
40
0.0010944624751601717
40
0.0010944624751601717
40
0.0010944624751601717
40
0.0010944624751601717
10
-36.06192056848829
20
28.428847089420138
30
6.6613381477509392e-15
10
-36.426604000955038
20
28.418835672093515
30
6.6613381477509392e-15
10
-36.791254243918857
20
28.407486709134922
30
-5.5511151231257827e-16
10
-37.155844795470983
20
28.394526612238764
30
-5.5511151231257827e-16
0
SPLINE
5
189
100
AcDbEntity
8
0
100
AcDbSpline
70
1064
71
3
72
14
73
10
74
0
42
0.000000001
43
0.0000000001
44
0.0000000001
40
0
40
0
40
0
40
0
40
0.00091889315867481715
40
0.00091889315867481715
40
0.00091889315867481715
40
0.0013783397380122164
40
0.0013783397380122164
40
0.0013783397380122164
40
0.0018377863173496154
40
0.0018377863173496154
40
0.0018377863173496154
40
0.0018377863173496154
10
-37.155844795470998
20
28.394526612238774
30
1.1102230246251565e-15
10
-37.463281954972118
20
28.383598146430597
30
1.1102230246251565e-15
10
-37.764790438775094
20
28.305580079103926
30
0
10
-38.036467974106344
20
28.168857622881653
30
0
10
-38.172306741771976
20
28.10049639477052
30
1.6653345369377348e-15
10
-38.302552055718564
20
28.016246149391776
30
5.5511151231257827e-16
10
-38.420419125983457
20
27.920596304914579
30
5.5511151231257827e-16
10
-38.538286196248357
20
27.824946460437378
30
1.1102230246251565e-15
10
-38.645453071600706
20
27.717287360247667
30
1.1102230246251565e-15
10
-38.741486183559417
20
27.597132393150289
30
1.1102230246251565e-15
0
ARC
5
190
100
AcDbEntity
8
0
100
AcDbCircle
10
-38.667099914189464
20
27.537685344053948
30
-9.2893148728734332e-09
40
0.095222207058242248
100
AcDbArc
50
141.36930687682502
51
180.0036050961983
0
LINE
5
191
100
AcDbEntity
8
0
100
AcDbLine
10
-38.762322121059206
20
27.537679352603853
30
5.9873809728932433e-16
11
-38.762322121059199
21
22.974299999999992
31
5.5511151231257827e-16
0
ARC
5
192
100
AcDbEntity
8
0
100
AcDbCircle
10
-46.786799999999999
20
22.974299999999989
30
5.5511151231257827e-16
40
8.0244778789408002
100
AcDbArc
50
-90.000000000000099
51
0
0
LINE
5
193
100
AcDbEntity
8
0
100
AcDbLine
10
-46.786800000000014
20
14.949822121059675
30
5.5511151231257827e-16
11
-47.30248754555997
21
14.949822121059192
31
5.5511151231257827e-16
0
LINE
5
194
100
AcDbEntity
8
0
100
AcDbLine
10
-47.30248754555997
20
14.949822121059192
30
5.5511151231257827e-16
11
-47.30248754555997
21
14.820259430454897
31
-2.4651903288156619e-31
0
ELLIPSE
5
195
100
AcDbEntity
8
0
100
AcDbEllipse
10
-48.064603619529429
20
14.820491560715181
30
1.1102230246251565e-15
11
-0.53897950814727824
21
0.53897950814716278
31
0.0
40
0.99969545988188735
41
2.3563467834400291
42
3.9268385237397729
0
LINE
5
196
100
AcDbEntity
8
0
100
AcDbLine
10
-48.064371489269142
20
14.058375486745723
30
1.1102230246251565e-15
11
-49.787406300595038
21
14.058375486745724
31
-6.2235852558964543e-32
0
ELLIPSE
5
197
100
AcDbEntity
8
0
100
AcDbEllipse
10
-49.787174170334751
20
14.820491560715185
30
1.1102230246251565e-15
11
0.53897950814727824
21
0.53897950814716278
31
0.0
40
0.99969545988188735
41
2.356346783439808
42
3.9268385237395522
0
LINE
5
198
100
AcDbEntity
8
0
100
AcDbLine
10
-50.54929024430421
20
14.820259430454897
30
1.1102230246251565e-15
11
-50.54929024430421
21
14.949822121059196
31
5.5511151231257847e-16
0
LINE
5
199
100
AcDbEntity
8
0
100
AcDbLine
10
-50.54929024430421
20
14.949822121059196
30
5.5511151231257847e-16
11
-51.442351775181159
21
14.949822121059197
31
5.5511151231257817e-16
0
ARC
5
200
100
AcDbEntity
8
0
100
AcDbCircle
10
-51.442174610937869
20
14.854074728401713
30
-1.6653345369377348e-15
40
0.095747556563472988
100
AcDbArc
50
90.106015960904784
51
128.52053156987259
0
SPLINE
5
201
100
AcDbEntity
8
0
100
AcDbSpline
70
1064
71
3
72
11
73
7
74
0
42
0.000000001
43
0.0000000001
44
0.0000000001
40
6.172140171301197
40
6.172140171301197
40
6.172140171301197
40
6.172140171301197
40
6.6201905127700353
40
6.6201905127700353
40
6.6201905127700353
40
7.0682408542388728
40
7.0682408542388728
40
7.0682408542388728
40
7.0682408542388728
10
-51.501805714181607
20
14.928986183559179
30
2.7755575615628914e-15
10
-51.750061366739331
20
14.730570263071712
30
2.7755575615628914e-15
10
-51.952796683026669
20
14.475866171069374
30
2.7755575615628914e-15
10
-52.090476581402001
20
14.189516980351986
30
2.7755575615628914e-15
10
-52.22815647977734
20
13.903167789634598
30
2.7755575615628914e-15
10
-52.30052212105258
20
13.58571207113371
30
2.7755575615628914e-15
10
-52.300522121059203
20
13.267801076504986
30
2.7755575615628914e-15
0
LINE
5
202
100
AcDbEntity
8
0
100
AcDbLine
10
-52.300522121059203
20
13.267801076504986
30
2.7755575615628914e-15
11
-52.300522121059203
21
-13.267801076504991
31
5.5511151231257827e-16
0
SPLINE
5
203
100
AcDbEntity
8
0
100
AcDbSpline
70
1064
71
3
72
11
73
7
74
0
42
0.000000001
43
0.0000000001
44
0.0000000001
40
2.3565371065305132
40
2.3565371065305132
40
2.3565371065305132
40
2.3565371065305132
40
2.8045874479993529
40
2.8045874479993529
40
2.8045874479993529
40
3.2526377894681948
40
3.2526377894681948
40
3.2526377894681948
40
3.2526377894681948
10
-52.300522121059203
20
-13.267801076504993
30
2.7755575615628914e-15
10
-52.30052212105258
20
-13.585712071133722
30
2.7755575615628914e-15
10
-52.228156479777198
20
-13.903167789634612
30
2.7755575615628914e-15
10
-52.090476581401994
20
-14.189516980352003
30
2.7755575615628914e-15
10
-51.952796683026783
20
-14.4758661710694
30
2.7755575615628914e-15
10
-51.750061366739672
20
-14.73057026307227
30
2.7755575615628914e-15
10
-51.501805714181586
20
-14.928986183559195
30
2.7755575615628914e-15
0
ARC
5
204
100
AcDbEntity
8
0
100
AcDbCircle
10
-51.442174610937883
20
-14.854074728401795
30
1.2212453270876722e-14
40
0.095747556563395272
100
AcDbArc
50
231.4794684301182
51
269.89398403912065
0
LINE
5
205
100
AcDbEntity
8
0
100
AcDbLine
10
-51.44235177518113
20
-14.949822121059197
30
2.7798215669475134e-15
11
-50.549290244304217
21
-14.949822121059206
31
5.5511151231257827e-16
0
LINE
5
206
100
AcDbEntity
8
0
100
AcDbLine
10
-50.549290244304217
20
-14.949822121059206
30
5.5511151231257827e-16
11
-50.54929024430421
21
-14.820259430454897
31
-2.4651903288156619e-31
0
ELLIPSE
5
207
100
AcDbEntity
8
0
100
AcDbEllipse
10
-49.787174170334751
20
-14.820491560715183
30
1.1102230246251565e-15
11
-0.53897950814727824
21
0.53897950814716278
31
0.0
40
0.99969545988188735
41
5.4979394370298271
42
7.0684311773295718
0
CIRCLE
5
208
100
AcDbEntity
8
0
100
AcDbCircle
10
-36.512499999999989
20
-12.70000000000001
30
5.5511151231257827e-16
40
2.9602806019643282
0
CIRCLE
5
209
100
AcDbEntity
8
0
100
AcDbCircle
10
-36.512499999999989
20
12.699999999999985
30
5.5511151231257827e-16
40
2.9602806019643282
0
CIRCLE
5
210
100
AcDbEntity
8
0
100
AcDbCircle
10
36.512499999999989
20
12.699999999999985
30
5.5511151231257827e-16
40
2.9602806019643282
0
CIRCLE
5
211
100
AcDbEntity
8
0
100
AcDbCircle
10
36.512499999999989
20
-12.699999999999999
30
5.5511151231257827e-16
40
2.9602806019643264
0
CIRCLE
5
212
100
AcDbEntity
8
0
100
AcDbCircle
10
36.512499999999989
20
-12.699999999999999
30
0
40
1.0321603377058235
0
CIRCLE
5
213
100
AcDbEntity
8
0
100
AcDbCircle
10
36.512499999999989
20
12.699999999999985
30
0
40
1.0321603377058235
0
CIRCLE
5
214
100
AcDbEntity
8
0
100
AcDbCircle
10
-36.512499999999989
20
-12.70000000000001
30
0
40
1.0321603377058235
0
CIRCLE
5
215
100
AcDbEntity
8
0
100
AcDbCircle
10
-36.512499999999989
20
12.699999999999985
30
0
40
1.0321603377058235
0
ENDSEC
0
SECTION
2
OBJECTS
0
DICTIONARY
5
C
100
AcDbDictionary
3
ACAD_GROUP
350
D
3
ACAD_MLINESTYLE
350
17
0
DICTIONARY
5
D
100
AcDbDictionary
0
DICTIONARY
5
1A
330
C
100
AcDbDictionary
0
DICTIONARY
5
17
100
AcDbDictionary
0
ENDSEC
0
EOF
